\relax 
\providecommand\zref@newlabel[2]{}
\providecommand\hyper@newdestlabel[2]{}
\providecommand\HyField@AuxAddToFields[1]{}
\providecommand\HyField@AuxAddToCoFields[2]{}
\@writefile{toc}{\contentsline {section}{\numberline {1}Introduction}{1}{section.1}\protected@file@percent }
\@writefile{toc}{\contentsline {section}{\numberline {2}Problem Statement}{1}{section.2}\protected@file@percent }
\@writefile{toc}{\contentsline {subsection}{\numberline {2.1}The Game}{1}{subsection.2.1}\protected@file@percent }
\@writefile{toc}{\contentsline {subsection}{\numberline {2.2}The Task}{2}{subsection.2.2}\protected@file@percent }
\@writefile{toc}{\contentsline {subsubsection}{\numberline {2.2.1}Understanding the Game}{2}{subsubsection.2.2.1}\protected@file@percent }
\@writefile{toc}{\contentsline {subsubsection}{\numberline {2.2.2}Developing Effective Strategies}{2}{subsubsection.2.2.2}\protected@file@percent }
\@writefile{toc}{\contentsline {subsubsection}{\numberline {2.2.3}Iterative Improvement}{2}{subsubsection.2.2.3}\protected@file@percent }
\@writefile{toc}{\contentsline {section}{\numberline {3}Teaching GenAI the Game}{2}{section.3}\protected@file@percent }
\@writefile{toc}{\contentsline {section}{\numberline {4}Strategies and Code}{3}{section.4}\protected@file@percent }
\@writefile{toc}{\contentsline {section}{\numberline {5}Analysis and Conclusions}{4}{section.5}\protected@file@percent }
\@writefile{toc}{\contentsline {section}{\numberline {A}Appendix}{4}{appendix.A}\protected@file@percent }
\@writefile{toc}{\contentsline {subsection}{\numberline {A.1}The first working code}{4}{subsection.A.1}\protected@file@percent }
\newlabel{code1}{{A.1}{4}{The first working code}{subsection.A.1}{}}
\@writefile{toc}{\contentsline {subsection}{\numberline {A.2}The modified strategy}{8}{subsection.A.2}\protected@file@percent }
\newlabel{code2}{{A.2}{8}{The modified strategy}{subsection.A.2}{}}
\@writefile{toc}{\contentsline {subsection}{\numberline {A.3}Function to calculate probability}{9}{subsection.A.3}\protected@file@percent }
\newlabel{bad}{{A.3}{9}{Function to calculate probability}{subsection.A.3}{}}
\@writefile{toc}{\contentsline {subsection}{\numberline {A.4}Gemini’s answer to identifying human players}{11}{subsection.A.4}\protected@file@percent }
\newlabel{humanplayerlogic}{{A.4}{11}{Gemini’s answer to identifying human players}{subsection.A.4}{}}
\@writefile{toc}{\contentsline {subsection}{\numberline {A.5}Gemini’s alternative way to identify human players}{11}{subsection.A.5}\protected@file@percent }
\newlabel{humansvscomputers}{{A.5}{11}{Gemini’s alternative way to identify human players}{subsection.A.5}{}}
\@writefile{toc}{\contentsline {subsection}{\numberline {A.6}Gemini’s horrible summary of the game}{12}{subsection.A.6}\protected@file@percent }
\newlabel{summary}{{A.6}{12}{Gemini’s horrible summary of the game}{subsection.A.6}{}}
\@writefile{toc}{\contentsline {subsection}{\numberline {A.7}Another bad summary by Gemini}{13}{subsection.A.7}\protected@file@percent }
\newlabel{summary2}{{A.7}{13}{Another bad summary by Gemini}{subsection.A.7}{}}
\gdef\minted@oldcachelist{,
  default.pygstyle,
  3C52B401C9BF474EEAFB724685802537F73D778D6577DD371281B40198477396.pygtex,
  0E49F529C765DBE5D8A62A2A90342ADCF73D778D6577DD371281B40198477396.pygtex,
  25A7AACAE45FA4771AEA62D06A9ECDAB40441AE4C96FD4880400CEF17695A6DC.pygtex,
  91171EDE2FBB094499F707050EE8529540441AE4C96FD4880400CEF17695A6DC.pygtex,
  1499B312CE9B64F0D2F10766D313E92240441AE4C96FD4880400CEF17695A6DC.pygtex,
  CDA1B8CECFEDA31CA0ADFEDC723A19A23452BD97D3043FD731F889A63024F556.pygtex,
  7729D4C5F816A1D1E9786C724564EAA754149B2FE63D00742D74BBC1E2368ED0.pygtex,
  4F4B6D605CCF4D07955602EB57CFF442ECE101A687FF869098D87525BD2684F8.pygtex,
  EC675EF37637EB4F196A5188043FC7947C521E04239707932018E7D4F1A325F1.pygtex,
  68A4F541699BDC5B21CE553725C9731ECDFDE094D69DA7B9F7AE5D18C6E42602.pygtex,
  DC1024885DBCFED8E4157ABE5F71DB4E780B728168D78EC8CD728AC83C22AD3D.pygtex,
  F4F40BC58DCCC990A228DC60FDD1C00E9BD031A1A216136C698FAC2B1CA3933B.pygtex}
\gdef \@abspage@last{14}
